Project 1: Wrangling, Exploration, Visualization
…
## [1] 89822

nrow(covid)

## [1] 518682

# 2.2
vax %>% select(country) %>% group_by(country) %>% summarize(n())

## # A tibble: 164 x 2
##    country             `n()`
##    <chr>               <int>
##  1 Afghanistan           216
##  2 Albania               275
##  3 Algeria               178
##  4 Andorra               255
##  5 Angola                210
##  6 Antigua and Barbuda   222
##  7 Argentina            3288
##  8 Armenia               314
##  9 Australia            1006
## 10 Austria               290
## #  with 154 more rows

covid %>% select(country) %>% group_by(country) %>% summarize(n())

## # A tibble: 195 x 2
##    country             `n()`
##    <chr>               <int>
##  1 Afghanistan          1893
##  2 Albania              1893
##  3 Algeria              1893
##  4 Andorra              1893
##  5 Angola               1893
##  6 Antigua and Barbuda  1893
##  7 Argentina            1893
##  8 Armenia              1893
##  9 Australia           15144
## 10 Austria              1893
## #  with 185 more rows
…
## [1] 304

nrow(covid) - sum(covid$country %in% vax$country)

## [1] 60576

setdiff(vax$country, covid$country)

## [1] "World"

# 2.4
data %>% select(country) %>% group_by(country) %>% summarize(n())

## # A tibble: 163 x 2
##    country                `n()`
##    <chr>                  <int>
##  1 Afghanistan           408888
##  2 Albania               520575
##  3 Algeria               336954
##  4 Andorra               482715
##  5 Angola                397530
##  6 Antigua and Barbuda   420246
##  7 Argentina            6224184
##  8 Armenia               594402
##  9 Australia           15234864
## 10 Austria               548970
## #  with 153 more rows
…
